…
A glimpse into the data shows us that we got twp variables which are integer and one that’s date, we also see there’s some missing values which we’ll deal with later.

Research Question 1:
What is mean total number of steps taken per day?

(d1 <- data %>% 
  group_by(date) %>%
  drop_na() %>% 
  summarise(
    total_steps_per_days = sum(steps),
    mean_steps_per_days = mean(steps),
    median_steps_per_days = median(steps)))

## # A tibble: 53 x 4
##    date       total_steps_per_days mean_steps_per_days median_steps_per_days
##    <date>                    <int>               <dbl>                 <dbl>
##  1 2012-10-02                  126               0.438                     0
##  2 2012-10-03                11352              39.4                       0
##  3 2012-10-04                12116              42.1                       0
##  4 2012-10-05                13294              46.2                       0
##  5 2012-10-06                15420              53.5                       0
##  6 2012-10-07                11015              38.2                       0
##  7 2012-10-09                12811              44.5                       0
##  8 2012-10-10                 9900              34.4                       0
##  9 2012-10-11                10304              35.8                       0
## 10 2012-10-12                17382              60.4                       0
## # … with 43 more rows

One thing to notice here is that most of the medians are null, that’s because there’s a lot of 5 minute intervals where the person doesn’t walk any steps which is reasonable.

d1 %>% 
  count(total_steps_per_days)

## # A tibble: 53 x 2
##    total_steps_per_days     n
##                   <int> <int>
##  1                   41     1
##  2                  126     1
##  3                 2492     1
##  4                 3219     1
##  5                 4472     1
##  6                 5018     1
##  7                 5441     1
##  8                 6778     1
##  9                 7047     1
## 10                 7336     1
## # … with 43 more rows
…
new_data <- data %>% 
  group_by(interval) %>% 
  mutate(steps = ifelse(is.na(steps),median(steps,na.rm = T),steps))

I chose to fill missing values with the median of the corresponding interval.

(d3 <- new_data %>% 
  group_by(date) %>%
  drop_na() %>% 
  summarise(
    total_steps_per_days = sum(steps),
    mean_steps_per_days = mean(steps),
    median_steps_per_days = median(steps)))

## # A tibble: 61 x 4
##    date       total_steps_per_days mean_steps_per_days median_steps_per_days
##    <date>                    <int>               <dbl>                 <dbl>
##  1 2012-10-01                 1141               3.96                      0
##  2 2012-10-02                  126               0.438                     0
##  3 2012-10-03                11352              39.4                       0
##  4 2012-10-04                12116              42.1                       0
##  5 2012-10-05                13294              46.2                       0
##  6 2012-10-06                15420              53.5                       0
##  7 2012-10-07                11015              38.2                       0
##  8 2012-10-08                 1141               3.96                      0
##  9 2012-10-09                12811              44.5                       0
## 10 2012-10-10                 9900              34.4                       0
## # … with 51 more rows
…
